\relax 
\providecommand\hyper@newdestlabel[2]{}
\providecommand\babel@aux[2]{}
\@nameuse{bbl@beforestart}
\catcode `"\active 
\catcode `<\active 
\catcode `>\active 
\@nameuse{es@quoting}
\providecommand\HyperFirstAtBeginDocument{\AtBeginDocument}
\HyperFirstAtBeginDocument{\ifx\hyper@anchor\@undefined
\global\let\oldcontentsline\contentsline
\gdef\contentsline#1#2#3#4{\oldcontentsline{#1}{#2}{#3}}
\global\let\oldnewlabel\newlabel
\gdef\newlabel#1#2{\newlabelxx{#1}#2}
\gdef\newlabelxx#1#2#3#4#5#6{\oldnewlabel{#1}{{#2}{#3}}}
\AtEndDocument{\ifx\hyper@anchor\@undefined
\let\contentsline\oldcontentsline
\let\newlabel\oldnewlabel
\fi}
\fi}
\global\let\hyper@last\relax 
\gdef\HyperFirstAtBeginDocument#1{#1}
\providecommand*\HyPL@Entry[1]{}
\HyPL@Entry{0<</S/D>>}
\babel@aux{spanish}{}
\HyPL@Entry{1<</S/D>>}
\@writefile{toc}{\contentsline {section}{\numberline {1}Introducción}{3}{section.1}\protected@file@percent }
\@writefile{toc}{\contentsline {subsection}{\numberline {1.1}Agradecimientos}{3}{subsection.1.1}\protected@file@percent }
\@writefile{toc}{\contentsline {subsection}{\numberline {1.2}Resumen}{4}{subsection.1.2}\protected@file@percent }
\@writefile{lof}{\contentsline {figure}{\numberline {1}{\ignorespaces Sistema de ANRP\relax }}{4}{figure.caption.3}\protected@file@percent }
\@writefile{toc}{\contentsline {subsection}{\numberline {1.3}Objetivos}{5}{subsection.1.3}\protected@file@percent }
\@writefile{toc}{\contentsline {subsection}{\numberline {1.4}Motivación}{6}{subsection.1.4}\protected@file@percent }
\@writefile{toc}{\contentsline {section}{\numberline {2}Estado del arte}{7}{section.2}\protected@file@percent }
\@writefile{toc}{\contentsline {subsection}{\numberline {2.1}¿Qué es un ANPR?}{7}{subsection.2.1}\protected@file@percent }
\@writefile{lof}{\contentsline {figure}{\numberline {2}{\ignorespaces Sistema ANPR\relax }}{8}{figure.caption.4}\protected@file@percent }
\@writefile{toc}{\contentsline {subsection}{\numberline {2.2}Historia de los sistemas de ANPR}{9}{subsection.2.2}\protected@file@percent }
\@writefile{lof}{\contentsline {figure}{\numberline {3}{\ignorespaces Intel i486\relax }}{9}{figure.caption.5}\protected@file@percent }
\@writefile{lof}{\contentsline {figure}{\numberline {4}{\ignorespaces Historia de los sistemas de ANPR\relax }}{10}{figure.caption.6}\protected@file@percent }
\@writefile{toc}{\contentsline {subsection}{\numberline {2.3}¿Dónde se aplica actualmente un ANPR?}{11}{subsection.2.3}\protected@file@percent }
\@writefile{lof}{\contentsline {figure}{\numberline {5}{\ignorespaces Control de acceso a recintos\relax }}{11}{figure.caption.7}\protected@file@percent }
\@writefile{lof}{\contentsline {figure}{\numberline {6}{\ignorespaces Control de estacionamiento\relax }}{12}{figure.caption.8}\protected@file@percent }
\@writefile{lof}{\contentsline {figure}{\numberline {7}{\ignorespaces Gasolineras\relax }}{12}{figure.caption.9}\protected@file@percent }
\@writefile{lof}{\contentsline {figure}{\numberline {8}{\ignorespaces Policía\relax }}{13}{figure.caption.10}\protected@file@percent }
\@writefile{toc}{\contentsline {section}{\numberline {3}Desempeño del trabajo}{14}{section.3}\protected@file@percent }
\@writefile{toc}{\contentsline {subsection}{\numberline {3.1}Tecnologías utilizadas}{14}{subsection.3.1}\protected@file@percent }
\@writefile{toc}{\contentsline {subsection}{\numberline {3.2}Estudio de los datos necesarios}{17}{subsection.3.2}\protected@file@percent }
\@writefile{lof}{\contentsline {figure}{\numberline {9}{\ignorespaces Formato de matrícula\relax }}{17}{figure.caption.11}\protected@file@percent }
\@writefile{toc}{\contentsline {subsection}{\numberline {3.3}Procesamiento de la imagen}{20}{subsection.3.3}\protected@file@percent }
\@writefile{lof}{\contentsline {figure}{\numberline {11}{\ignorespaces Carga de la imagen\relax }}{20}{figure.caption.13}\protected@file@percent }
\@writefile{lof}{\contentsline {figure}{\numberline {12}{\ignorespaces Primera capa de tratamiento\relax }}{20}{figure.caption.14}\protected@file@percent }
\@writefile{lof}{\contentsline {figure}{\numberline {13}{\ignorespaces Aplicación del filtro Gaussiano\relax }}{21}{figure.caption.15}\protected@file@percent }
\@writefile{lof}{\contentsline {figure}{\numberline {14}{\ignorespaces Aplicación del filtro bilateral\relax }}{22}{figure.caption.16}\protected@file@percent }
\@writefile{lof}{\contentsline {figure}{\numberline {15}{\ignorespaces Imagen de un coche procesada\relax }}{23}{figure.caption.17}\protected@file@percent }
\@writefile{lof}{\contentsline {figure}{\numberline {16}{\ignorespaces Imagen tras hacer el threshold\relax }}{24}{figure.caption.18}\protected@file@percent }
\@writefile{lof}{\contentsline {figure}{\numberline {17}{\ignorespaces Método de extracción de rectángulos\relax }}{25}{figure.caption.19}\protected@file@percent }
\@writefile{lof}{\contentsline {figure}{\numberline {18}{\ignorespaces Erosión y dilatación de la imagen\relax }}{26}{figure.caption.20}\protected@file@percent }
\@writefile{lof}{\contentsline {figure}{\numberline {19}{\ignorespaces Imagen procesada tras el segundo bloque\relax }}{27}{figure.caption.21}\protected@file@percent }
\@writefile{toc}{\contentsline {subsection}{\numberline {3.4}Tratamiento de los datos}{28}{subsection.3.4}\protected@file@percent }
\@writefile{lof}{\contentsline {figure}{\numberline {20}{\ignorespaces Método de obtención de los caracteres de la matrícula\relax }}{28}{figure.caption.22}\protected@file@percent }
\@writefile{lof}{\contentsline {figure}{\numberline {21}{\ignorespaces Método comprueba el ratio de dimensiones de la matrícula\relax }}{29}{figure.caption.23}\protected@file@percent }
\@writefile{lof}{\contentsline {figure}{\numberline {22}{\ignorespaces Matricula extraída de la imagen\relax }}{29}{figure.caption.24}\protected@file@percent }
\@writefile{lof}{\contentsline {figure}{\numberline {23}{\ignorespaces Función para comprobación de color\relax }}{30}{figure.caption.25}\protected@file@percent }
\@writefile{toc}{\contentsline {subsection}{\numberline {3.5}Obtención de los resultados finales}{31}{subsection.3.5}\protected@file@percent }
\@writefile{lof}{\contentsline {figure}{\numberline {24}{\ignorespaces Obtenemos los dígitos a partir de la imagen\relax }}{31}{figure.caption.26}\protected@file@percent }
\@writefile{lof}{\contentsline {figure}{\numberline {25}{\ignorespaces Mostramos el resultado final del proceso por terminal\relax }}{32}{figure.caption.27}\protected@file@percent }
\@writefile{toc}{\contentsline {section}{\numberline {4}Análisis de rendimiento}{33}{section.4}\protected@file@percent }
\@writefile{lof}{\contentsline {figure}{\numberline {26}{\ignorespaces Ejemplo de uso del profiler\relax }}{33}{figure.caption.28}\protected@file@percent }
\@writefile{lof}{\contentsline {figure}{\numberline {27}{\ignorespaces Indicamos el uso del profiler\relax }}{33}{figure.caption.29}\protected@file@percent }
\@writefile{lof}{\contentsline {figure}{\numberline {28}{\ignorespaces Consumo de memoria del método de cargadoDeImagen\relax }}{34}{figure.caption.30}\protected@file@percent }
\@writefile{lof}{\contentsline {figure}{\numberline {29}{\ignorespaces Consumo de memoria del método modificando parámetros\relax }}{34}{figure.caption.31}\protected@file@percent }
\@writefile{lof}{\contentsline {figure}{\numberline {30}{\ignorespaces Consumo de memoria del método extraccionDeRectangulos\relax }}{34}{figure.caption.32}\protected@file@percent }
\@writefile{lof}{\contentsline {figure}{\numberline {31}{\ignorespaces Consumo de memoria modificando parámetros\relax }}{35}{figure.caption.33}\protected@file@percent }
\@writefile{lof}{\contentsline {figure}{\numberline {32}{\ignorespaces Consumo de memoria comprobarRatioMatricula\relax }}{35}{figure.caption.34}\protected@file@percent }
\@writefile{lof}{\contentsline {figure}{\numberline {33}{\ignorespaces Consumo de memoria comprobacionDeColor\relax }}{35}{figure.caption.35}\protected@file@percent }
\@writefile{lof}{\contentsline {figure}{\numberline {34}{\ignorespaces Consumo de memoria validacionDeCaracteres\relax }}{36}{figure.caption.36}\protected@file@percent }
\@writefile{lof}{\contentsline {figure}{\numberline {35}{\ignorespaces Consumo de memoria validacionDeCaracteres con cambios\relax }}{36}{figure.caption.37}\protected@file@percent }
\@writefile{toc}{\contentsline {section}{\numberline {5}Conclusiones y planes de mejora}{37}{section.5}\protected@file@percent }
\@writefile{toc}{\contentsline {section}{\numberline {6}Bibliografía}{38}{section.6}\protected@file@percent }
\@writefile{toc}{\contentsline {section}{\numberline {7}Anexos y código fuente}{39}{section.7}\protected@file@percent }
\gdef \@abspage@last{42}
